<div class='msgrn'><b><span style='color:#c73525;margin-right:10px;'>PAY1</span></b><span style='color:#8c65e3'>Thu:09:00:07</span><br/>Distributor: Everready (7666222788 )<br/><b>Amount:</b> 56900<br/><b>TxnID:</b> bom-4079_1421_CASH</div>
<div class='msgrn'><b><span style='color:#c73525;margin-right:10px;'>PAY1</span></b><span style='color:#8c65e3'>Thu:09:00:58</span><br/>Distributor: Everready (7666222788 )<br/><b>Amount:</b> 56900<br/><b>TxnID:</b> bom-4079_1421_CASH</div>
<div class='msgrn'><b><span style='color:#c73525;margin-right:10px;'>PAY1</span></b><span style='color:#8c65e3'>Thu:09:05:34</span><br/>Retailer: SAI BABA BISKIT (7208272664 )<br/><b>Amount:</b> 3000<br/><b>TxnID:</b> </div>
<div class='msgrn'><b><span style='color:#c73525;margin-right:10px;'>PAY1</span></b><span style='color:#8c65e3'>Thu:09:10:45</span><br/>Distributor: Customer Point Enterprises (8655065657 )<br/><b>Amount:</b> 121155<br/><b>TxnID:</b> BRANCH</div>
<div class='msgrn'><b><span style='color:#c73525;margin-right:10px;'>PAY1</span></b><span style='color:#8c65e3'>Thu:09:25:48</span><br/>Retailer: SAI BABA BISKIT (7208272664 )<br/><b>Amount:</b> 3000<br/><b>TxnID:</b> </div>
<div class='msgrn'><b><span style='color:#c73525;margin-right:10px;'>PAY1</span></b><span style='color:#8c65e3'>Thu:09:29:50</span><br/>Distributor: Hitesh Enterprise (9405050577 )<br/><b>Amount:</b> 26590<br/><b>TxnID:</b> maharastra</div>
<div class='msgrn'><b><span style='color:#c73525;margin-right:10px;'>PAY1</span></b><span style='color:#8c65e3'>Thu:09:46:07</span><br/>Distributor: Shree Samarth Sales (8655872965 )<br/><b>Amount:</b> 71000<br/><b>TxnID:</b> bom-4079__CASH</div>
<div class='msgrn'><b><span style='color:#c73525;margin-right:10px;'>PAY1</span></b><span style='color:#8c65e3'>Thu:09:49:58</span><br/>Distributor: Pooja Agency  (9892814399 )<br/><b>Amount:</b> 200000<br/><b>TxnID:</b> bom....neft</div>
<div class='msgrn'><b><span style='color:#c73525;margin-right:10px;'>PAY1</span></b><span style='color:#8c65e3'>Thu:10:01:59</span><br/>Retailer: airwell versova andheri (w) (8879068369 )<br/><b>Amount:</b> 1000<br/><b>TxnID:</b> 153192</div>
<div class='msgrn'><b><span style='color:#c73525;margin-right:10px;'>PAY1</span></b><span style='color:#8c65e3'>Thu:10:05:29</span><br/>Retailer: Aiyub Ali (8640073832 )<br/><b>Amount:</b> 1000<br/><b>TxnID:</b> </div>
<div class='msgrn'><b><span style='color:#c73525;margin-right:10px;'>PAY1</span></b><span style='color:#8c65e3'>Thu:10:06:02</span><br/>Distributor: Shree Samarth Sales (8655872965 )<br/><b>Amount:</b> 71000<br/><b>TxnID:</b> bom-4079__CASH</div>
<div class='msgrn'><b><span style='color:#c73525;margin-right:10px;'>PAY1</span></b><span style='color:#8c65e3'>Thu:10:06:33</span><br/>Retailer: Aiyub Ali (8640073832 )<br/><b>Amount:</b> 1000<br/><b>TxnID:</b> </div>
<div class='msgrn'><b><span style='color:#c73525;margin-right:10px;'>PAY1</span></b><span style='color:#8c65e3'>Thu:10:12:53</span><br/>Distributor: Devanshi Mobile (9892990157 )<br/><b>Amount:</b> 30000<br/><b>TxnID:</b> bom-4079_206835_CASH</div>
<div class='msgrn'><b><span style='color:#c73525;margin-right:10px;'>PAY1</span></b><span style='color:#8c65e3'>Thu:10:17:08</span><br/>Distributor: Mansvi Associates (9699904440 )<br/><b>Amount:</b> 288311<br/><b>TxnID:</b> </div>
<div class='msgrn'><b><span style='color:#c73525;margin-right:10px;'>PAY1</span></b><span style='color:#8c65e3'>Thu:10:19:14</span><br/>Distributor: Shree Samarth Sales (8655872965 )<br/><b>Amount:</b> 71000<br/><b>TxnID:</b> bom-4079__CASH</div>
<div class='msgrn'><b><span style='color:#c73525;margin-right:10px;'>PAY1</span></b><span style='color:#8c65e3'>Thu:10:27:02</span><br/>Distributor: sumadha enterprises (9821447065 )<br/><b>Amount:</b> 40<br/><b>TxnID:</b> bom-4079__CASH</div>
<div class='msgrn'><b><span style='color:#c73525;margin-right:10px;'>PAY1</span></b><span style='color:#8c65e3'>Thu:10:27:44</span><br/>Distributor: Shiv Enterprises (9975090693 )<br/><b>Amount:</b> 24481<br/><b>TxnID:</b> bom-4079__CASH</div>
<div class='msgrn'><b><span style='color:#c73525;margin-right:10px;'>PAY1</span></b><span style='color:#8c65e3'>Thu:10:30:38</span><br/>Retailer: Aiyub Ali (8640073832 )<br/><b>Amount:</b> 1500<br/><b>TxnID:</b> </div>
<div class='msgrn'><b><span style='color:#c73525;margin-right:10px;'>PAY1</span></b><span style='color:#8c65e3'>Thu:10:30:53</span><br/>Distributor: Shree Samarth Sales (8655872965 )<br/><b>Amount:</b> 71000<br/><b>TxnID:</b> bom-4079__</div>
<div class='msgrn'><b><span style='color:#c73525;margin-right:10px;'>PAY1</span></b><span style='color:#8c65e3'>Thu:10:31:40</span><br/>Retailer: Aiyub Ali (8640073832 )<br/><b>Amount:</b> 1500<br/><b>TxnID:</b> </div>
<div class='msgrn'><b><span style='color:#c73525;margin-right:10px;'>PAY1</span></b><span style='color:#8c65e3'>Thu:10:32:20</span><br/>Distributor: Shiv Enterprises (9975090693 )<br/><b>Amount:</b> 24481<br/><b>TxnID:</b> bom-4079__CASH</div>
<div class='msgrn'><b><span style='color:#c73525;margin-right:10px;'>PAY1</span></b><span style='color:#8c65e3'>Thu:10:36:37</span><br/>Distributor: Alamdaar Enterprises  (9879527862 )<br/><b>Amount:</b> 30152<br/><b>TxnID:</b> </div>
<div class='msgrn'><b><span style='color:#c73525;margin-right:10px;'>PAY1</span></b><span style='color:#8c65e3'>Thu:10:39:22</span><br/>Distributor: Shree Samarth Sales (8655872965 )<br/><b>Amount:</b> 71000<br/><b>TxnID:</b> bom-4079__CASH</div>
<div class='msgrn'><b><span style='color:#c73525;margin-right:10px;'>PAY1</span></b><span style='color:#8c65e3'>Thu:10:40:43</span><br/>Distributor: Pranit (8975750101 )<br/><b>Amount:</b> 21000<br/><b>TxnID:</b> bom-4079_323796_CASH</div>
<div class='msgrn'><b><span style='color:#c73525;margin-right:10px;'>PAY1</span></b><span style='color:#8c65e3'>Thu:10:43:51</span><br/>Retailer: Aiyub Ali (8640073832 )<br/><b>Amount:</b> 1500<br/><b>TxnID:</b> </div>
<div class='msgrn'><b><span style='color:#c73525;margin-right:10px;'>PAY1</span></b><span style='color:#8c65e3'>Thu:10:44:22</span><br/>Distributor: Alamdaar Enterprises  (9879527862 )<br/><b>Amount:</b> 30152<br/><b>TxnID:</b> </div>
<div class='msgrn'><b><span style='color:#c73525;margin-right:10px;'>PAY1</span></b><span style='color:#8c65e3'>Thu:10:44:39</span><br/>Distributor: Two g Telcom (8698692127 )<br/><b>Amount:</b> 101000<br/><b>TxnID:</b> bom-4079_gangapurroadthattenagarbranchcode001143nashikcity_CASH</div>
<div class='msgrn'><b><span style='color:#c73525;margin-right:10px;'>PAY1</span></b><span style='color:#8c65e3'>Thu:10:44:53</span><br/>Retailer: Aiyub Ali (8640073832 )<br/><b>Amount:</b> 1500<br/><b>TxnID:</b> </div>
<div class='msgrn'><b><span style='color:#c73525;margin-right:10px;'>PAY1</span></b><span style='color:#8c65e3'>Thu:10:49:55</span><br/>Distributor: Shree Sham Ent (8233867899 )<br/><b>Amount:</b> 157500<br/><b>TxnID:</b> bom-4079_jaipur_CASH</div>
<div class='msgrn'><b><span style='color:#c73525;margin-right:10px;'>PAY1</span></b><span style='color:#8c65e3'>Thu:10:50:32</span><br/>Distributor: K.G.N Communication (9049653111 )<br/><b>Amount:</b> 100234<br/><b>TxnID:</b> bom-4079_URGENT_ATM-Transfer</div>
<div class='msgrn'><b><span style='color:#c73525;margin-right:10px;'>PAY1</span></b><span style='color:#8c65e3'>Thu:10:51:03</span><br/>Retailer: socaity 2 (9320366765 )<br/><b>Amount:</b> 2000<br/><b>TxnID:</b> </div>
<div class='msgrn'><b><span style='color:#c73525;margin-right:10px;'>PAY1</span></b><span style='color:#8c65e3'>Thu:10:52:18</span><br/>Retailer: airwell versova andheri (w) (8879068369 )<br/><b>Amount:</b> 1000<br/><b>TxnID:</b> 153192</div>
<div class='msgrn'><b><span style='color:#c73525;margin-right:10px;'>PAY1</span></b><span style='color:#8c65e3'>Thu:10:55:53</span><br/>Distributor: Minerva Agencies (7709955363 )<br/><b>Amount:</b> 27125<br/><b>TxnID:</b> bom-4079__CASH</div>
<div class='msgrn'><b><span style='color:#c73525;margin-right:10px;'>PAY1</span></b><span style='color:#8c65e3'>Thu:10:58:56</span><br/>Distributor: A. R. Enterprises (9588391111 )<br/><b>Amount:</b> 32000<br/><b>TxnID:</b> bom-4079__NEFT-RTGS</div>
<div class='msgrn'><b><span style='color:#c73525;margin-right:10px;'>PAY1</span></b><span style='color:#8c65e3'>Thu:11:03:32</span><br/>Distributor: A. R. Enterprises (9588391111 )<br/><b>Amount:</b> 32000<br/><b>TxnID:</b> bom-4079__NEFT-RTGS</div>
<div class='msgrn'><b><span style='color:#c73525;margin-right:10px;'>PAY1</span></b><span style='color:#8c65e3'>Thu:11:06:21</span><br/>Distributor: Well Done Link Services (8655443786 )<br/><b>Amount:</b> 51400<br/><b>TxnID:</b> bom-4079_KURLAWDT-19-12-2013_CASH</div>
<div class='msgrn'><b><span style='color:#c73525;margin-right:10px;'>PAY1</span></b><span style='color:#8c65e3'>Thu:11:14:14</span><br/>Distributor: Krishna Communication And Graphic Solutions. (7428114259 )<br/><b>Amount:</b> 40500<br/><b>TxnID:</b> icici-1578_7682624_NEFT-RTGS</div>
<div class='msgrn'><b><span style='color:#c73525;margin-right:10px;'>PAY1</span></b><span style='color:#8c65e3'>Thu:11:14:43</span><br/>Distributor: Pankaj Communication (9860665644 )<br/><b>Amount:</b> 10000<br/><b>TxnID:</b> 6446</div>
<div class='msgrn'><b><span style='color:#c73525;margin-right:10px;'>PAY1</span></b><span style='color:#8c65e3'>Thu:11:18:47</span><br/>Distributor: Umer Mobile Shop (9665538833 )<br/><b>Amount:</b> 5000<br/><b>TxnID:</b> BOM</div>
<div class='msgrn'><b><span style='color:#c73525;margin-right:10px;'>PAY1</span></b><span style='color:#8c65e3'>Thu:11:21:07</span><br/>Distributor: Trimurti Mobile Shopee (9960325555 )<br/><b>Amount:</b> 4223<br/><b>TxnID:</b> bom-4079_000702855_CASH</div>
<div class='msgrn'><b><span style='color:#c73525;margin-right:10px;'>PAY1</span></b><span style='color:#8c65e3'>Thu:11:27:06</span><br/>Distributor: A. R. Enterprises (9588391111 )<br/><b>Amount:</b> 49000<br/><b>TxnID:</b> bom-4079__NEFT-RTGS</div>
<div class='msgrn'><b><span style='color:#c73525;margin-right:10px;'>PAY1</span></b><span style='color:#8c65e3'>Thu:11:31:27</span><br/>Distributor: Shree Sham Ent (8233867899 )<br/><b>Amount:</b> 157500<br/><b>TxnID:</b> bom-4079__CASH</div>
<div class='msgrn'><b><span style='color:#c73525;margin-right:10px;'>PAY1</span></b><span style='color:#8c65e3'>Thu:11:31:31</span><br/>Distributor: Pankaj Communication (9860665644 )<br/><b>Amount:</b> 10000<br/><b>TxnID:</b> 6446</div>
<div class='msgrn'><b><span style='color:#c73525;margin-right:10px;'>PAY1</span></b><span style='color:#8c65e3'>Thu:11:35:13</span><br/>Distributor: Rayan Enterprises (7208120696 )<br/><b>Amount:</b> bom<br/><b>TxnID:</b> 159000</div>
<div class='msgrn'><b><span style='color:#c73525;margin-right:10px;'>PAY1</span></b><span style='color:#8c65e3'>Thu:11:37:10</span><br/>Distributor: Trident Marketing (9819674740 )<br/><b>Amount:</b> 37500<br/><b>TxnID:</b> bom-4079_kalyan_CASH</div>
<div class='msgrn'><b><span style='color:#c73525;margin-right:10px;'>PAY1</span></b><span style='color:#8c65e3'>Thu:11:39:28</span><br/>Retailer: Deepak Telecom (8866136377 )<br/><b>Amount:</b> BOM<br/><b>TxnID:</b> 15215</div>
<div class='msgrn'><b><span style='color:#c73525;margin-right:10px;'>PAY1</span></b><span style='color:#8c65e3'>Thu:11:39:33</span><br/>Distributor: Anil Kisan (9764396307 )<br/><b>Amount:</b> 28275<br/><b>TxnID:</b> bom-4079__CASH</div>
<div class='msgrn'><b><span style='color:#c73525;margin-right:10px;'>PAY1</span></b><span style='color:#8c65e3'>Thu:11:43:20</span><br/>Distributor: Everready (7666222788 )<br/><b>Amount:</b> 31000<br/><b>TxnID:</b> bom</div>
<div class='msgrn'><b><span style='color:#c73525;margin-right:10px;'>PAY1</span></b><span style='color:#8c65e3'>Thu:11:45:14</span><br/>Retailer: airwell versova andheri (w) (8879068369 )<br/><b>Amount:</b> 1000<br/><b>TxnID:</b> 153192</div>
<div class='msgrn'><b><span style='color:#c73525;margin-right:10px;'>PAY1</span></b><span style='color:#8c65e3'>Thu:11:46:57</span><br/>Retailer: Mahendra Transport (9969190651 )<br/><b>Amount:</b> 2000<br/><b>TxnID:</b> </div>
<div class='msgrn'><b><span style='color:#c73525;margin-right:10px;'>PAY1</span></b><span style='color:#8c65e3'>Thu:11:48:18</span><br/>Distributor: Shree Samarth Sales (8655872965 )<br/><b>Amount:</b> 80000<br/><b>TxnID:</b> bom-4079__CASH</div>
<div class='msgrn'><b><span style='color:#c73525;margin-right:10px;'>PAY1</span></b><span style='color:#8c65e3'>Thu:11:52:52</span><br/>Distributor: Shree Sham Ent (8233867899 )<br/><b>Amount:</b> 157500<br/><b>TxnID:</b> bom-4079__CASH</div>
<div class='msgrn'><b><span style='color:#c73525;margin-right:10px;'>PAY1</span></b><span style='color:#8c65e3'>Thu:11:53:01</span><br/>Distributor: Om Enterprises (9766466646 )<br/><b>Amount:</b> 10000<br/><b>TxnID:</b> bom-4079_virar_CASH</div>
<div class='msgrn'><b><span style='color:#c73525;margin-right:10px;'>PAY1</span></b><span style='color:#8c65e3'>Thu:11:56:15</span><br/>Distributor: Pankaj Communication (9860665644 )<br/><b>Amount:</b> 10000<br/><b>TxnID:</b> 6446</div>
<div class='msgrn'><b><span style='color:#c73525;margin-right:10px;'>PAY1</span></b><span style='color:#8c65e3'>Thu:11:56:50</span><br/>Distributor: Prachi Telecom (8080545405 )<br/><b>Amount:</b> 95235<br/><b>TxnID:</b> bom-4079_53_CASH</div>
<div class='msgrn'><b><span style='color:#c73525;margin-right:10px;'>PAY1</span></b><span style='color:#8c65e3'>Thu:11:57:33</span><br/>Distributor: Pranit (8975750101 )<br/><b>Amount:</b> 21000<br/><b>TxnID:</b> bom-4079_323796_CASH</div>
<div class='msgrn'><b><span style='color:#c73525;margin-right:10px;'>PAY1</span></b><span style='color:#8c65e3'>Thu:11:57:35</span><br/>Distributor: Shree Samarth Sales (8655872965 )<br/><b>Amount:</b> 80000<br/><b>TxnID:</b> bom-4079__CASH</div>
<div class='msgrn'><b><span style='color:#c73525;margin-right:10px;'>PAY1</span></b><span style='color:#8c65e3'>Thu:11:58:54</span><br/>Distributor: Jaiswal Enterprises (9867143487 )<br/><b>Amount:</b> 83000<br/><b>TxnID:</b> bom-4079_0000_CASH</div>
<div class='msgrn'><b><span style='color:#c73525;margin-right:10px;'>PAY1</span></b><span style='color:#8c65e3'>Thu:11:59:18</span><br/>Distributor: Choudhary Enterprise  (8097117777 )<br/><b>Amount:</b> 63282<br/><b>TxnID:</b> bom</div>
<div class='msgrn'><b><span style='color:#c73525;margin-right:10px;'>PAY1</span></b><span style='color:#8c65e3'>Thu:12:05:20</span><br/>Distributor: Everready (7666222788 )<br/><b>Amount:</b> 31000<br/><b>TxnID:</b> bom</div>
<div class='msgrn'><b><span style='color:#c73525;margin-right:10px;'>PAY1</span></b><span style='color:#8c65e3'>Thu:12:06:43</span><br/>Distributor: Om Enterprises (9766466646 )<br/><b>Amount:</b> 10000<br/><b>TxnID:</b> bom-4079_virar_CASH</div>
<div class='msgrn'><b><span style='color:#c73525;margin-right:10px;'>PAY1</span></b><span style='color:#8c65e3'>Thu:12:08:43</span><br/>Retailer: Shree Samrth Entp (9920109974 )<br/><b>Amount:</b> 2000<br/><b>TxnID:</b> </div>
<div class='msgrn'><b><span style='color:#c73525;margin-right:10px;'>PAY1</span></b><span style='color:#8c65e3'>Thu:12:08:45</span><br/>Distributor: Dhananjay Gadekar (9028278032 )<br/><b>Amount:</b> 4000<br/><b>TxnID:</b> bom-4079_a/cname-HotelSai_Cheque</div>
<div class='msgrn'><b><span style='color:#c73525;margin-right:10px;'>PAY1</span></b><span style='color:#8c65e3'>Thu:12:18:57</span><br/>Distributor: Pankaj Communication (9860665644 )<br/><b>Amount:</b> 10000<br/><b>TxnID:</b> 6446</div>
<div class='msgrn'><b><span style='color:#c73525;margin-right:10px;'>PAY1</span></b><span style='color:#8c65e3'>Thu:12:21:28</span><br/>Distributor: Jayesh Kirana St. (7387388686 )<br/><b>Amount:</b> BOM<br/><b>TxnID:</b> 33900</div>
<div class='msgrn'><b><span style='color:#c73525;margin-right:10px;'>PAY1</span></b><span style='color:#8c65e3'>Thu:12:24:20</span><br/>Retailer: Shabbir General Store, (g.w) (8689961062 )<br/><b>Amount:</b> 6000<br/><b>TxnID:</b> </div>
<div class='msgrn'><b><span style='color:#c73525;margin-right:10px;'>PAY1</span></b><span style='color:#8c65e3'>Thu:12:27:30</span><br/>Distributor: Krishna Mobile (9049812007 )<br/><b>Amount:</b> 60000<br/><b>TxnID:</b> icici-1578__ATM-Transfer</div>
<div class='msgrn'><b><span style='color:#c73525;margin-right:10px;'>PAY1</span></b><span style='color:#8c65e3'>Thu:12:30:41</span><br/>Distributor: Shree Samarth Sales (8655872965 )<br/><b>Amount:</b> 80000<br/><b>TxnID:</b> bom-4079__CASH</div>
<div class='msgrn'><b><span style='color:#c73525;margin-right:10px;'>PAY1</span></b><span style='color:#8c65e3'>Thu:12:32:25</span><br/>Distributor: Everready (7666222788 )<br/><b>Amount:</b> 31000<br/><b>TxnID:</b> bom</div>
<div class='msgrn'><b><span style='color:#c73525;margin-right:10px;'>PAY1</span></b><span style='color:#8c65e3'>Thu:12:32:57</span><br/>Distributor: Two g Telcom (8698692127 )<br/><b>Amount:</b> 24000<br/><b>TxnID:</b> bom-4079_ugaonbranchcode842_CASH</div>
<div class='msgrn'><b><span style='color:#c73525;margin-right:10px;'>PAY1</span></b><span style='color:#8c65e3'>Thu:12:37:44</span><br/>Distributor: Arhaan mirza (9654337297 )<br/><b>Amount:</b> 33199<br/><b>TxnID:</b> </div>
<div class='msgrn'><b><span style='color:#c73525;margin-right:10px;'>PAY1</span></b><span style='color:#8c65e3'>Thu:12:40:01</span><br/>Distributor: Minerva Agencies (7709955363 )<br/><b>Amount:</b> 20125<br/><b>TxnID:</b> bom-4079_Ulhasnagarbranch_CASH</div>
<div class='msgrn'><b><span style='color:#c73525;margin-right:10px;'>PAY1</span></b><span style='color:#8c65e3'>Thu:12:42:04</span><br/>Distributor: Saarah Distributor (8082225786 )<br/><b>Amount:</b> 25000<br/><b>TxnID:</b> bom-4079_nil_CASH</div>
<div class='msgrn'><b><span style='color:#c73525;margin-right:10px;'>PAY1</span></b><span style='color:#8c65e3'>Thu:12:44:55</span><br/>Distributor: Mahavir Telecom (9870103667 )<br/><b>Amount:</b> 13000<br/><b>TxnID:</b> bom-4079__CASH</div>
<div class='msgrn'><b><span style='color:#c73525;margin-right:10px;'>PAY1</span></b><span style='color:#8c65e3'>Thu:12:49:19</span><br/>Distributor: Mahavir Telecom (9870103667 )<br/><b>Amount:</b> 13000<br/><b>TxnID:</b> bom-4079_117_CASH</div>
<div class='msgrn'><b><span style='color:#c73525;margin-right:10px;'>PAY1</span></b><span style='color:#8c65e3'>Thu:13:11:36</span><br/>Distributor: Dhananjay Gadekar (9028278032 )<br/><b>Amount:</b> 18900<br/><b>TxnID:</b> MANMAD0276</div>
<div class='msgrn'><b><span style='color:#c73525;margin-right:10px;'>PAY1</span></b><span style='color:#8c65e3'>Thu:13:17:09</span><br/>Distributor: Pankaj Communication (9860665644 )<br/><b>Amount:</b> 10000<br/><b>TxnID:</b> 6446</div>
<div class='msgrn'><b><span style='color:#c73525;margin-right:10px;'>PAY1</span></b><span style='color:#8c65e3'>Thu:13:17:35</span><br/>Distributor: Sanket Mobile (9422817499 )<br/><b>Amount:</b> 40000<br/><b>TxnID:</b> </div>
<div class='msgrn'><b><span style='color:#c73525;margin-right:10px;'>PAY1</span></b><span style='color:#8c65e3'>Thu:13:20:43</span><br/>Distributor: Mahavir Telecom (9870103667 )<br/><b>Amount:</b> 40500<br/><b>TxnID:</b> bom-4079_117_CASH</div>
<div class='msgrn'><b><span style='color:#c73525;margin-right:10px;'>PAY1</span></b><span style='color:#8c65e3'>Thu:13:29:35</span><br/>Distributor: Ridhi Agency (9664552167 )<br/><b>Amount:</b> 480000<br/><b>TxnID:</b> icici-0005__NEFT-RTGS</div>
<div class='msgrn'><b><span style='color:#c73525;margin-right:10px;'>PAY1</span></b><span style='color:#8c65e3'>Thu:13:31:00</span><br/>Distributor: Trimurti Mobile Shopee (9960325555 )<br/><b>Amount:</b> bom<br/><b>TxnID:</b> 18500</div>
<div class='msgrn'><b><span style='color:#c73525;margin-right:10px;'>PAY1</span></b><span style='color:#8c65e3'>Thu:13:32:31</span><br/>Retailer: Mamta tea stall (8879353712 )<br/><b>Amount:</b> 1022<br/><b>TxnID:</b> </div>
<div class='msgrn'><b><span style='color:#c73525;margin-right:10px;'>PAY1</span></b><span style='color:#8c65e3'>Thu:13:38:26</span><br/>Distributor: Everready (7666222788 )<br/><b>Amount:</b> 32500<br/><b>TxnID:</b> bom</div>
<div class='msgrn'><b><span style='color:#c73525;margin-right:10px;'>PAY1</span></b><span style='color:#8c65e3'>Thu:13:40:29</span><br/>Distributor: Satish Electronics (9325035324 )<br/><b>Amount:</b> 30000<br/><b>TxnID:</b> bom-4079_collegeroadnashik_CASH</div>
<div class='msgrn'><b><span style='color:#c73525;margin-right:10px;'>PAY1</span></b><span style='color:#8c65e3'>Thu:13:44:13</span><br/>Distributor: Shree Sham Ent (8233867899 )<br/><b>Amount:</b> 42800<br/><b>TxnID:</b> bom-4079_jaipur_CASH</div>
<div class='msgrn'><b><span style='color:#c73525;margin-right:10px;'>PAY1</span></b><span style='color:#8c65e3'>Thu:13:49:11</span><br/>Retailer: Mamta tea stall (8879353712 )<br/><b>Amount:</b> 1022<br/><b>TxnID:</b> </div>
<div class='msgrn'><b><span style='color:#c73525;margin-right:10px;'>PAY1</span></b><span style='color:#8c65e3'>Thu:13:49:52</span><br/>Retailer: vijay general (9821866653 )<br/><b>Amount:</b> 1000<br/><b>TxnID:</b> </div>
<div class='msgrn'><b><span style='color:#c73525;margin-right:10px;'>PAY1</span></b><span style='color:#8c65e3'>Thu:13:50:51</span><br/>Distributor: Pankaj Communication (9860665644 )<br/><b>Amount:</b> 10000<br/><b>TxnID:</b> 6446</div>
<div class='msgrn'><b><span style='color:#c73525;margin-right:10px;'>PAY1</span></b><span style='color:#8c65e3'>Thu:13:54:22</span><br/>Distributor: Satish Electronics (9325035324 )<br/><b>Amount:</b> 30000<br/><b>TxnID:</b> bom-4079_collegeroadnashik_CASH</div>
<div class='msgrn'><b><span style='color:#c73525;margin-right:10px;'>PAY1</span></b><span style='color:#8c65e3'>Thu:13:56:12</span><br/>Distributor: hanif (9327532182 )<br/><b>Amount:</b> 85100<br/><b>TxnID:</b> bom-4079__CASH</div>
<div class='msgrn'><b><span style='color:#c73525;margin-right:10px;'>PAY1</span></b><span style='color:#8c65e3'>Thu:13:57:34</span><br/>Distributor: A. R. Enterprises (9588391111 )<br/><b>Amount:</b> 99000<br/><b>TxnID:</b> bom</div>
<div class='msgrn'><b><span style='color:#c73525;margin-right:10px;'>PAY1</span></b><span style='color:#8c65e3'>Thu:14:09:18</span><br/>Distributor: Hitesh Enterprise (9405050577 )<br/><b>Amount:</b> 24090<br/><b>TxnID:</b> maharastra</div>
<div class='msgrn'><b><span style='color:#c73525;margin-right:10px;'>PAY1</span></b><span style='color:#8c65e3'>Thu:14:11:32</span><br/>Distributor: Shree Samarth Sales (8655872965 )<br/><b>Amount:</b> 25000<br/><b>TxnID:</b> bom-4079__CASH</div>
<div class='msgrn'><b><span style='color:#c73525;margin-right:10px;'>PAY1</span></b><span style='color:#8c65e3'>Thu:14:13:45</span><br/>Distributor: Everready (7666222788 )<br/><b>Amount:</b> 11000<br/><b>TxnID:</b> bom-4079_0964_CASH</div>
<div class='msgrn'><b><span style='color:#c73525;margin-right:10px;'>PAY1</span></b><span style='color:#8c65e3'>Thu:14:14:51</span><br/>Retailer: Shree Samrth Entp (9920109974 )<br/><b>Amount:</b> 2000<br/><b>TxnID:</b> </div>
<div class='msgrn'><b><span style='color:#c73525;margin-right:10px;'>PAY1</span></b><span style='color:#8c65e3'>Thu:14:16:00</span><br/>Distributor: Everready (7666222788 )<br/><b>Amount:</b> 32500<br/><b>TxnID:</b> bom-4079_virarw_CASH</div>
<div class='msgrn'><b><span style='color:#c73525;margin-right:10px;'>PAY1</span></b><span style='color:#8c65e3'>Thu:14:21:24</span><br/>Distributor: Shree Samarth Sales (8655872965 )<br/><b>Amount:</b> 25000<br/><b>TxnID:</b> bom-4079__CASH</div>
<div class='msgrn'><b><span style='color:#c73525;margin-right:10px;'>PAY1</span></b><span style='color:#8c65e3'>Thu:14:23:37</span><br/>Distributor: Alisha Telecom (9867339869 )<br/><b>Amount:</b> 22000<br/><b>TxnID:</b> bom-4079__NEFT-RTGS</div>
<div class='msgrn'><b><span style='color:#c73525;margin-right:10px;'>PAY1</span></b><span style='color:#8c65e3'>Thu:14:28:59</span><br/>Distributor: Pankaj Communication (9860665644 )<br/><b>Amount:</b> 10000<br/><b>TxnID:</b> 6446</div>
<div class='msgrn'><b><span style='color:#c73525;margin-right:10px;'>PAY1</span></b><span style='color:#8c65e3'>Thu:14:32:09</span><br/>Distributor: Shree Sham Ent (8233867899 )<br/><b>Amount:</b> 42800<br/><b>TxnID:</b> bom-4079__CASH</div>
<div class='msgrn'><b><span style='color:#c73525;margin-right:10px;'>PAY1</span></b><span style='color:#8c65e3'>Thu:14:32:54</span><br/>Distributor: Trident Marketing (9819674740 )<br/><b>Amount:</b> 40000<br/><b>TxnID:</b> bom-4079_kalyan_CASH</div>
<div class='msgrn'><b><span style='color:#c73525;margin-right:10px;'>PAY1</span></b><span style='color:#8c65e3'>Thu:14:33:54</span><br/>Distributor: sumadha enterprises (9821447065 )<br/><b>Amount:</b> 40000<br/><b>TxnID:</b> bom-4079__CASH</div>
<div class='msgrn'><b><span style='color:#c73525;margin-right:10px;'>PAY1</span></b><span style='color:#8c65e3'>Thu:14:37:12</span><br/>Distributor: Shree Samarth Sales (8655872965 )<br/><b>Amount:</b> 41000<br/><b>TxnID:</b> bom-4079__CASH</div>
<div class='msgrn'><b><span style='color:#c73525;margin-right:10px;'>PAY1</span></b><span style='color:#8c65e3'>Thu:14:37:38</span><br/>Distributor: Minerva Agencies (7709955363 )<br/><b>Amount:</b> 47125<br/><b>TxnID:</b> bom-4079__CASH</div>
<div class='msgrn'><b><span style='color:#c73525;margin-right:10px;'>PAY1</span></b><span style='color:#8c65e3'>Thu:14:40:45</span><br/>Distributor: Shree Samarth Sales (8655872965 )<br/><b>Amount:</b> 41000<br/><b>TxnID:</b> bom-4079__CASH</div>
<div class='msgrn'><b><span style='color:#c73525;margin-right:10px;'>PAY1</span></b><span style='color:#8c65e3'>Thu:14:43:06</span><br/>Distributor: Shree Balaji Telcommunication (9209999146 )<br/><b>Amount:</b> 50100<br/><b>TxnID:</b> </div>
<div class='msgrn'><b><span style='color:#c73525;margin-right:10px;'>PAY1</span></b><span style='color:#8c65e3'>Thu:14:56:34</span><br/>Distributor: Laksh Travels (7303090615 )<br/><b>Amount:</b> 40000<br/><b>TxnID:</b> icici-0005_186111_ATM-Transfer</div>
<div class='msgrn'><b><span style='color:#c73525;margin-right:10px;'>PAY1</span></b><span style='color:#8c65e3'>Thu:15:02:20</span><br/>Distributor: Two g Telcom (8698692127 )<br/><b>Amount:</b> 77500<br/><b>TxnID:</b> bom-4079_nashikpuneroaddwarkabranchnashikcity_CASH</div>
<div class='msgrn'><b><span style='color:#c73525;margin-right:10px;'>PAY1</span></b><span style='color:#8c65e3'>Thu:15:07:55</span><br/>Distributor: Ruby Telecom (9926777669 )<br/><b>Amount:</b> 10000<br/><b>TxnID:</b> bom-4079_saa20719859_NEFT-RTGS</div>
<div class='msgrn'><b><span style='color:#c73525;margin-right:10px;'>PAY1</span></b><span style='color:#8c65e3'>Thu:15:08:37</span><br/>Distributor: Shubham Enterprises (9424313422 )<br/><b>Amount:</b> 14000<br/><b>TxnID:</b> bom-4079_MAHB0000341_CASH</div>
<div class='msgrn'><b><span style='color:#c73525;margin-right:10px;'>PAY1</span></b><span style='color:#8c65e3'>Thu:15:09:36</span><br/>Retailer: vijay general (9821866653 )<br/><b>Amount:</b> 1000<br/><b>TxnID:</b> </div>
<div class='msgrn'><b><span style='color:#c73525;margin-right:10px;'>PAY1</span></b><span style='color:#8c65e3'>Thu:15:12:06</span><br/>Distributor: Ruby Telecom (9926777669 )<br/><b>Amount:</b> 10000<br/><b>TxnID:</b> bom-4079_Saa20719859_NEFT-RTGS</div>
<div class='msgrn'><b><span style='color:#c73525;margin-right:10px;'>PAY1</span></b><span style='color:#8c65e3'>Thu:15:15:28</span><br/>Distributor: Pranit (8975750101 )<br/><b>Amount:</b> 20000<br/><b>TxnID:</b> bom-4079_2411023_Cheque</div>
<div class='msgrn'><b><span style='color:#c73525;margin-right:10px;'>PAY1</span></b><span style='color:#8c65e3'>Thu:15:19:21</span><br/>Distributor: Dhananjay Gadekar (9028278032 )<br/><b>Amount:</b> 3000<br/><b>TxnID:</b> LASALGAON0352</div>
<div class='msgrn'><b><span style='color:#c73525;margin-right:10px;'>PAY1</span></b><span style='color:#8c65e3'>Thu:15:20:04</span><br/>Distributor: Two g Telcom (8698692127 )<br/><b>Amount:</b> 30000<br/><b>TxnID:</b> bom-4079_nil_ATM-Transfer</div>
<div class='msgrn'><b><span style='color:#c73525;margin-right:10px;'>PAY1</span></b><span style='color:#8c65e3'>Thu:15:23:05</span><br/>Retailer: Deepak Telecom (8866136377 )<br/><b>Amount:</b> BOM<br/><b>TxnID:</b> 5215</div>
<div class='msgrn'><b><span style='color:#c73525;margin-right:10px;'>PAY1</span></b><span style='color:#8c65e3'>Thu:15:24:55</span><br/>Distributor: Salim Communication (9029862016 )<br/><b>Amount:</b> 34000<br/><b>TxnID:</b> </div>
<div class='msgrn'><b><span style='color:#c73525;margin-right:10px;'>PAY1</span></b><span style='color:#8c65e3'>Thu:15:26:33</span><br/>Distributor: Shubham Enterprises (9424313422 )<br/><b>Amount:</b> 14000<br/><b>TxnID:</b> bom-4079_MAHB0000341_CASH</div>
<div class='msgrn'><b><span style='color:#c73525;margin-right:10px;'>PAY1</span></b><span style='color:#8c65e3'>Thu:15:29:09</span><br/>Distributor: Ramesh Mobile (7654678851 )<br/><b>Amount:</b> 42788<br/><b>TxnID:</b> bom-4079__CASH</div>
<div class='msgrn'><b><span style='color:#c73525;margin-right:10px;'>PAY1</span></b><span style='color:#8c65e3'>Thu:15:30:25</span><br/>Distributor: Pankaj Communication (9860665644 )<br/><b>Amount:</b> 20000<br/><b>TxnID:</b> 6446</div>
<div class='msgrn'><b><span style='color:#c73525;margin-right:10px;'>PAY1</span></b><span style='color:#8c65e3'>Thu:15:35:40</span><br/>Retailer: Shree Samrth Entp (9920109974 )<br/><b>Amount:</b> 2000<br/><b>TxnID:</b> </div>
<div class='msgrn'><b><span style='color:#c73525;margin-right:10px;'>PAY1</span></b><span style='color:#8c65e3'>Thu:15:36:11</span><br/>Retailer: Marketing Mood (9767601646 )<br/><b>Amount:</b> 1000<br/><b>TxnID:</b> </div>
<div class='msgrn'><b><span style='color:#c73525;margin-right:10px;'>PAY1</span></b><span style='color:#8c65e3'>Thu:15:42:44</span><br/>Distributor: Maa Communication (9713454313 )<br/><b>Amount:</b> 10000<br/><b>TxnID:</b> bom-4079_002679585_ATM-Transfer</div>
<div class='msgrn'><b><span style='color:#c73525;margin-right:10px;'>PAY1</span></b><span style='color:#8c65e3'>Thu:15:45:11</span><br/>Distributor: Ramesh Mobile (7654678851 )<br/><b>Amount:</b> 42788<br/><b>TxnID:</b> bom-4079__CASH</div>
<div class='msgrn'><b><span style='color:#c73525;margin-right:10px;'>PAY1</span></b><span style='color:#8c65e3'>Thu:15:54:36</span><br/>Distributor: Royal Infotech (8602643236 )<br/><b>Amount:</b> 45000<br/><b>TxnID:</b> bom-4079_mahb0000341_CASH</div>
<div class='msgrn'><b><span style='color:#c73525;margin-right:10px;'>PAY1</span></b><span style='color:#8c65e3'>Thu:15:54:38</span><br/>Distributor: Cyber Park (9870421140 )<br/><b>Amount:</b> 15000<br/><b>TxnID:</b> icici-0005_0526185620_ATM-Transfer</div>
<div class='msgrn'><b><span style='color:#c73525;margin-right:10px;'>PAY1</span></b><span style='color:#8c65e3'>Thu:15:54:58</span><br/>Distributor: Shiv Enterprises (9975090693 )<br/><b>Amount:</b> 48381<br/><b>TxnID:</b> bom-4079__</div>
<div class='msgrn'><b><span style='color:#c73525;margin-right:10px;'>PAY1</span></b><span style='color:#8c65e3'>Thu:15:55:03</span><br/>Distributor: Jaiswal Enterprises (9867143487 )<br/><b>Amount:</b> 45000<br/><b>TxnID:</b> bom-4079_0000_CASH</div>
<div class='msgrn'><b><span style='color:#c73525;margin-right:10px;'>PAY1</span></b><span style='color:#8c65e3'>Thu:15:56:30</span><br/>Distributor: Shiv Enterprises (9975090693 )<br/><b>Amount:</b> 48381<br/><b>TxnID:</b> bom-4079__CASH</div>
<div class='msgrn'><b><span style='color:#c73525;margin-right:10px;'>PAY1</span></b><span style='color:#8c65e3'>Thu:16:03:46</span><br/>Distributor: Pankaj Communication (9860665644 )<br/><b>Amount:</b> 20000<br/><b>TxnID:</b> 6446</div>
<div class='msgrn'><b><span style='color:#c73525;margin-right:10px;'>PAY1</span></b><span style='color:#8c65e3'>Thu:16:04:18</span><br/>Distributor: Hitesh Enterprise (9405050577 )<br/><b>Amount:</b> 22090<br/><b>TxnID:</b> maharastra</div>
<div class='msgrn'><b><span style='color:#c73525;margin-right:10px;'>PAY1</span></b><span style='color:#8c65e3'>Thu:16:05:49</span><br/>Distributor: Minerva Agencies (7709955363 )<br/><b>Amount:</b> 15125<br/><b>TxnID:</b> bom-4079__CASH</div>
<div class='msgrn'><b><span style='color:#c73525;margin-right:10px;'>PAY1</span></b><span style='color:#8c65e3'>Thu:16:14:25</span><br/>Distributor: Satish Electronics (9325035324 )<br/><b>Amount:</b> 30000<br/><b>TxnID:</b> bom-4079_collegeroadnashik_CASH</div>
<div class='msgrn'><b><span style='color:#c73525;margin-right:10px;'>PAY1</span></b><span style='color:#8c65e3'>Thu:16:16:31</span><br/>Retailer: BOSS (9098891008 )<br/><b>Amount:</b> 14500<br/><b>TxnID:</b> bom-4079__CASH</div>
<div class='msgrn'><b><span style='color:#c73525;margin-right:10px;'>PAY1</span></b><span style='color:#8c65e3'>Thu:16:21:34</span><br/>Distributor: Pankaj Communication (9860665644 )<br/><b>Amount:</b> 20000<br/><b>TxnID:</b> 6446</div>
<div class='msgrn'><b><span style='color:#c73525;margin-right:10px;'>PAY1</span></b><span style='color:#8c65e3'>Thu:16:26:04</span><br/>Distributor: Ridhi Agency (9664552167 )<br/><b>Amount:</b> 20000<br/><b>TxnID:</b> icici-0005__ATM-Transfer</div>
<div class='msgrn'><b><span style='color:#c73525;margin-right:10px;'>PAY1</span></b><span style='color:#8c65e3'>Thu:16:30:30</span><br/>Distributor: Telpathi Communication (9890347161 )<br/><b>Amount:</b> 100000<br/><b>TxnID:</b> bom-4079__CASH</div>
<div class='msgrn'><b><span style='color:#c73525;margin-right:10px;'>PAY1</span></b><span style='color:#8c65e3'>Thu:16:43:10</span><br/>Distributor: Minerva Agencies (7709955363 )<br/><b>Amount:</b> 15125<br/><b>TxnID:</b> bom-4079__CASH</div>
<div class='msgrn'><b><span style='color:#c73525;margin-right:10px;'>PAY1</span></b><span style='color:#8c65e3'>Thu:16:43:42</span><br/>Distributor: Minerva Agencies (7709955363 )<br/><b>Amount:</b> 47125<br/><b>TxnID:</b> bom-4079__CASH</div>
<div class='msgrn'><b><span style='color:#c73525;margin-right:10px;'>PAY1</span></b><span style='color:#8c65e3'>Thu:16:45:47</span><br/>Distributor: Shree Balaji Telcommunication (9209999146 )<br/><b>Amount:</b> 45100<br/><b>TxnID:</b> </div>
<div class='msgrn'><b><span style='color:#c73525;margin-right:10px;'>PAY1</span></b><span style='color:#8c65e3'>Thu:16:58:40</span><br/>Distributor: Cyber Park (9870421140 )<br/><b>Amount:</b> 15000<br/><b>TxnID:</b> icici-0005_0526185620_ATM-Transfer</div>
<div class='msgrn'><b><span style='color:#c73525;margin-right:10px;'>PAY1</span></b><span style='color:#8c65e3'>Thu:17:04:58</span><br/>Distributor: Cyber Park (9870421140 )<br/><b>Amount:</b> 15000<br/><b>TxnID:</b> icici-0005_0526185620_ATM-Transfer</div>
<div class='msgrn'><b><span style='color:#c73525;margin-right:10px;'>PAY1</span></b><span style='color:#8c65e3'>Thu:17:06:58</span><br/>Distributor: Pankaj Communication (9860665644 )<br/><b>Amount:</b> 20000<br/><b>TxnID:</b> 6446</div>
<div class='msgrn'><b><span style='color:#c73525;margin-right:10px;'>PAY1</span></b><span style='color:#8c65e3'>Thu:17:29:32</span><br/>Retailer: versova time center (8082330355 )<br/><b>Amount:</b> 4037<br/><b>TxnID:</b> </div>
<div class='msgrn'><b><span style='color:#c73525;margin-right:10px;'>PAY1</span></b><span style='color:#8c65e3'>Thu:17:37:56</span><br/>Distributor: Krishna Mobile (9049812007 )<br/><b>Amount:</b> 30000<br/><b>TxnID:</b> icici-1578__ATM-Transfer</div>
<div class='msgrn'><b><span style='color:#c73525;margin-right:10px;'>PAY1</span></b><span style='color:#8c65e3'>Thu:17:38:23</span><br/>Distributor: Mithun Prabhakar Salunke (9702998582 )<br/><b>Amount:</b> 7000<br/><b>TxnID:</b> BANKOFMAHARASHTRA0075</div>
<div class='msgrn'><b><span style='color:#c73525;margin-right:10px;'>PAY1</span></b><span style='color:#8c65e3'>Thu:17:38:23</span><br/>Distributor: Mithun Prabhakar Salunke (9702998582 )<br/><b>Amount:</b> 7000<br/><b>TxnID:</b> BANKOFMAHARASHTRA0075</div>
<div class='msgrn'><b><span style='color:#c73525;margin-right:10px;'>PAY1</span></b><span style='color:#8c65e3'>Thu:17:38:23</span><br/>Distributor: Mithun Prabhakar Salunke (9702998582 )<br/><b>Amount:</b> 7000<br/><b>TxnID:</b> BANKOFMAHARASHTRA0075</div>
<div class='msgrn'><b><span style='color:#c73525;margin-right:10px;'>PAY1</span></b><span style='color:#8c65e3'>Thu:17:38:23</span><br/>Distributor: Mithun Prabhakar Salunke (9702998582 )<br/><b>Amount:</b> 7000<br/><b>TxnID:</b> BANKOFMAHARASHTRA0075</div>
<div class='msgrn'><input type='checkbox' onclick="this.parentNode.style.display='none'"><b><span style='color:#c73525;margin-right:10px;'>PAY1</span></b><span style='color:#8c65e3'>Thu:19:50:43</span><br/>pay1: Testing (9098989898 )<br/><b>Amount:</b> 10222<br/><b>TxnID:</b> 8484848484</div>
<div class='msgrn'><input type='checkbox' onclick="this.parentNode.style.display='none'"><b><span style='color:#c73525;margin-right:10px;'>PAY1</span></b><span style='color:#8c65e3'>Thu:19:52:03</span><br/>pay1: Testing (9098989898 )<br/><b>Amount:</b> 10222<br/><b>TxnID:</b> 8484848484</div>
<div class='msgrn'><input type='checkbox' onclick="this.parentNode.style.display='none'"><b><span style='color:#c73525;margin-right:10px;'>PAY1</span></b><span style='color:#8c65e3'>Thu:19:53:00</span><br/>pay1: Testing (9098989898 )<br/><b>Amount:</b> 10222<br/><b>TxnID:</b> 8484848484</div>
<div class='msgrn'><input type='checkbox' onclick="this.parentNode.style.display='none'"><b><span style='color:#c73525;margin-right:10px;'>PAY1</span></b><span style='color:#8c65e3'>Thu:19:53:46</span><br/>pay1: Testing (9098989898 )<br/><b>Amount:</b> 10222<br/><b>TxnID:</b> 8484848484</div>
<div class='msgrn'><input type='checkbox' onclick="this.parentNode.style.display='none'"><b><span style='color:#c73525;margin-right:10px;'>PAY1</span></b><span style='color:#8c65e3'>Thu:19:55:17</span><br/>pay1: Testing (9098989898 )<br/><b>Amount:</b> 10222<br/><b>TxnID:</b> 8484848484</div>
<div class='msgrn'><input type='checkbox' onclick="this.parentNode.style.display='none'"><b><span style='color:#c73525;margin-right:10px;'>PAY1</span></b><span style='color:#8c65e3'>Thu:19:56:28</span><br/>pay1: Testing (9098989898 )<br/><b>Amount:</b> 10222<br/><b>TxnID:</b> 8484848484</div>
<div class='msgrn'><input type='checkbox' onclick="this.parentNode.style.display='none'"><b><span style='color:#c73525;margin-right:10px;'>PAY1</span></b><span style='color:#8c65e3'>Thu:19:59:10</span><br/>pay1: Testing (9098989898 )<br/><b>Amount:</b> 10222<br/><b>TxnID:</b> 8484848484</div>
<div class='msgrn'><input type='checkbox' onclick="this.parentNode.style.display='none'"><b><span style='color:#c73525;margin-right:10px;'>PAY1</span></b><span style='color:#8c65e3'>Thu:19:59:57</span><br/>pay1: Testing (9098989898 )<br/><b>Amount:</b> 10222<br/><b>TxnID:</b> 8484848484</div>
<div class='msgrn'><input type='checkbox' onclick="this.parentNode.style.display='none'"><b><span style='color:#c73525;margin-right:10px;'>PAY1</span></b><span style='color:#8c65e3'>Thu:20:00:28</span><br/>pay1: Testing (9098989898 )<br/><b>Amount:</b> 10222<br/><b>TxnID:</b> 8484848484</div>
<div class='msgrn'><input type='checkbox' onclick="this.parentNode.style.display='none'"><b><span style='color:#c73525;margin-right:10px;'>PAY1</span></b><span style='color:#8c65e3'>Thu:20:00:56</span><br/>pay1: Testing (9098989898 )<br/><b>Amount:</b> 10222<br/><b>TxnID:</b> 8484848484</div>
<div class='msgrn'><input type='checkbox' onclick="this.parentNode.style.display='none'"><b><span style='color:#c73525;margin-right:10px;'>PAY1</span></b><span style='color:#8c65e3'>Thu:20:05:56</span><br/>pay1: Testing (9098989898 )<br/><b>Amount:</b> 10222<br/><b>TxnID:</b> 8484848484</div>
